module bitbucket.org/fluidpay/appcontext

go 1.17

require (
	cloud.google.com/go/logging v1.5.0
	github.com/brianvoe/gofakeit/v6 v6.19.0
	github.com/brianvoe/uhoh v0.0.11
)

require (
	cloud.google.com/go v0.104.0 // indirect
	cloud.google.com/go/compute v1.10.0 // indirect
	github.com/golang/groupcache v0.0.0-20210331224755-41bb18bfe9da // indirect
	github.com/golang/protobuf v1.5.2 // indirect
	github.com/google/go-cmp v0.5.9 // indirect
	github.com/googleapis/enterprise-certificate-proxy v0.2.0 // indirect
	github.com/googleapis/gax-go/v2 v2.5.1 // indirect
	go.opencensus.io v0.23.0 // indirect
	golang.org/x/net v0.0.0-20220927171203-f486391704dc // indirect
	golang.org/x/oauth2 v0.0.0-20220909003341-f21342109be1 // indirect
	golang.org/x/sync v0.0.0-20220929204114-8fcdb60fdcc0 // indirect
	golang.org/x/sys v0.0.0-20220928140112-f11e5e49a4ec // indirect
	golang.org/x/text v0.3.7 // indirect
	google.golang.org/api v0.98.0 // indirect
	google.golang.org/appengine v1.6.7 // indirect
	google.golang.org/genproto v0.0.0-20220930163606-c98284e70a91 // indirect
	google.golang.org/grpc v1.49.0 // indirect
	google.golang.org/protobuf v1.28.1 // indirect
)
